Visualization in R for Stata Users
…
# Base R for cvs; "data frame"
jh0 <- read.csv("https://raw.githubusercontent.com/XueWenSYan/PRC_Materials/refs/heads/main/jh_workshop.csv")

# tidyverse for cvs; "tibble"
jh1 <- read_csv("https://raw.githubusercontent.com/XueWenSYan/PRC_Materials/refs/heads/main/jh_workshop.csv")

# haven-label package loading dta; "tibble"
# jh2 <- read_dta('/Users/xy4889/Library/CloudStorage/GoogleDrive-xy364@cornell.edu/My Drive/2025 SP/jh_workshop.dta')
jh2 <- read_dta("G:/My Drive/2025 SP/jh_workshop.dta")

Basics of R: Inspect my data

    jh2

# A tibble: 838 × 10
     cid rhealth    raceth    fem  pfem sprhealth marstrain  simx  simy marhappy
   <dbl> <dbl+lbl>  <dbl+l> <dbl> <dbl>     <dbl>     <dbl> <dbl> <dbl>    <dbl>
 1   101 3 [Good]   1 [nh-…     1     1         3     -1     18.2  4.84     1   
 2   101 3 [Good]   1 [nh-…     1     1         3     -1.75  15.4  1.73     1.75
 3   103 4 [Very G… 1 [nh-…     1     1         4     -1     19.7  2.81     1   
 4   103 4 [Very G… 1 [nh-…     1     1         4     -1.5   23.2  3.87     1.5 
 5   106 5 [Excell… 1 [nh-…     1     1         5     -1.25  23.2  4.60     1.25
 6   106 5 [Excell… 1 [nh-…     1     1         5     -1.25  22.0  5.29     1.25
 7   114 4 [Very G… 1 [nh-…     0     0         4     -2     21.1  5.90     2   
 8   114 4 [Very G… 1 [nh-…     0     0         4     -2     18.1  1.95     2   
 9   120 5 [Excell… 1 [nh-…     0     0         4     -1.75  21.4  4.54     1.75
10   120 4 [Very G… 1 [nh-…     0     0         5     -1.75  20.2  5.31     1.75
# ℹ 828 more rows
…
    jh2 <- as_factor(jh2,only_labelled = T) #this REPLACED the jh2 dataset; you may or may not want to do this
    class(jh2$rhealth)

[1] "factor"

    length(jh2$rhealth=="Poor")

[1] 838

Basics of R: Vector & function based language

jh2

# A tibble: 838 × 10
     cid rhealth   raceth     fem  pfem sprhealth marstrain  simx  simy marhappy
   <dbl> <fct>     <fct>    <dbl> <dbl>     <dbl>     <dbl> <dbl> <dbl>    <dbl>
 1   101 Good      nh-white     1     1         3     -1     18.2  4.84     1   
 2   101 Good      nh-white     1     1         3     -1.75  15.4  1.73     1.75
 3   103 Very Good nh-white     1     1         4     -1     19.7  2.81     1   
 4   103 Very Good nh-white     1     1         4     -1.5   23.2  3.87     1.5 
 5   106 Excellent nh-white     1     1         5     -1.25  23.2  4.60     1.25
 6   106 Excellent nh-white     1     1         5     -1.25  22.0  5.29     1.25
 7   114 Very Good nh-white     0     0         4     -2     21.1  5.90     2   
 8   114 Very Good nh-white     0     0         4     -2     18.1  1.95     2   
 9   120 Excellent nh-white     0     0         4     -1.75  21.4  4.54     1.75
10   120 Very Good nh-white     0     0         5     -1.75  20.2  5.31     1.75
# ℹ 828 more rows
…
